<?xml version="1.0" encoding="UTF-8"?>
<svg width="30px" height="30px" viewBox="0 0 30 30" version="1.1" xmlns="http://www.w3.org/2000/svg" xmlns:xlink="http://www.w3.org/1999/xlink">
    <!-- Generator: Sketch Beta 46.2 (44476) - http://www.bohemiancoding.com/sketch -->
    <title>logo</title>
    <desc>Created with Sketch Beta.</desc>
    <defs></defs>
    <g id="Page-1" stroke="none" stroke-width="1" fill="none" fill-rule="evenodd">
        <g id="logo" fill="#FFFFFF">
            <path d="M-4.23516474e-22,21 L-4.23516474e-22,24.996 C-0.00159475436,26.3236316 0.525098742,27.5973453 1.4638767,28.5361233 C2.40265466,29.4749013 3.67636844,30.0015948 5.004,30 L24.996,30 C26.3236316,30.0015948 27.5973453,29.4749013 28.5361233,28.5361233 C29.4749013,27.5973453 30.0015948,26.3236316 30,24.996 L30,21 L29.01,21 C27.9479333,21.0031879 26.9282445,20.5836537 26.1759345,19.8339702 C25.4236244,19.0842866 25.0005265,18.0660713 25,17.004 L25,12.996 C25,10.796 26.795,9 29.01,9 L30,9 L30,5.004 C30.0015948,3.67636844 29.4749013,2.40265466 28.5361233,1.4638767 C27.5973453,0.525098742 26.3236316,-0.00159475436 24.996,0 L5.004,0 C3.67636844,-0.00159475436 2.40265466,0.525098742 1.4638767,1.4638767 C0.525098742,2.40265466 -0.00159475436,3.67636844 -4.23516474e-22,5.004 L-4.23516474e-22,9 L0.99,9 C2.05206667,8.99681206 3.07175548,9.41634632 3.82406552,10.1660298 C4.57637556,10.9157134 4.99947348,11.9339287 5,12.996 L5,17.004 C5,19.204 3.205,21 0.99,21 L-4.23516474e-22,21 Z M13.003,6 C11.410488,5.99920339 9.88298701,6.63154199 8.75700465,7.75771192 C7.63102229,8.88388185 6.99893813,10.4114882 7,12.004 L7,20.996 C6.99814006,22.5887559 7.62996789,24.1168261 8.75612339,25.2431692 C9.88227888,26.3695123 11.4102438,27.0015946 13.003,27 L16.997,27 C18.589512,27.0007966 20.117013,26.368458 21.2429954,25.2422881 C22.3689777,24.1161181 23.0010619,22.5885118 23,20.996 L23,12.004 C23.0018599,10.4112441 22.3700321,8.88317391 21.2438766,7.75683081 C20.1177211,6.63048772 18.5897562,5.99840536 16.997,6 L13.003,6 Z M12.995,7 C10.2372803,6.99944757 8.00110436,9.2342805 8,11.992 L8,21.008 C7.99999976,22.3324807 8.5263529,23.6026702 9.46318345,24.5389381 C10.400014,25.475206 11.6705196,26.000796 12.995,26 L17.005,26 C19.7627197,26.0005524 21.9988956,23.7657195 22,21.008 L22,11.992 C22.0000002,10.6675193 21.4736471,9.39732975 20.5368166,8.46106186 C19.599986,7.52479398 18.3294804,6.99920404 17.005,7 L12.995,7 Z M14.01,9 C11.80034,8.99888747 10.0066155,10.7863497 10,12.996 L10,17.004 C10.0005265,18.0660713 10.4236244,19.0842866 11.1759345,19.8339702 C11.9282445,20.5836537 12.9479333,21.0031879 14.01,21 L15.99,21 C18.19966,21.0011125 19.9933845,19.2136503 20,17.004 L20,12.996 C19.9994735,11.9339287 19.5763756,10.9157134 18.8240655,10.1660298 C18.0717555,9.41634632 17.0520667,8.99681206 15.99,9 L14.01,9 L14.01,9 Z M15,20 L14.01,20 C12.3500594,20.0016584 11.0027593,18.6579392 11,16.998 L11,15 L12,15 L12,15.994 C12.0005468,17.6516001 13.3424043,18.9961414 15,19 L15,20 L15,20 Z" id="Shape"></path>
        </g>
    </g>
</svg>